[gd_scene load_steps=4 format=2]

[ext_resource path="res://Graphics/Enemy.png" type="Texture" id=1]
[ext_resource path="res://Scripts/Characters/Enemy.gd" type="Script" id=2]

[sub_resource type="RectangleShape2D" id=1]
extents = Vector2( 4, 5 )

[node name="Enemy" type="Sprite"]
texture = ExtResource( 1 )
flip_h = true
script = ExtResource( 2 )

[node name="Hitbox" type="Area2D" parent="." groups=[
"Enemy",
]]

[node name="CollisionShape2D" type="CollisionShape2D" parent="Hitbox"]
visible = false
shape = SubResource( 1 )
[connection signal="area_entered" from="Hitbox" to="." method="_on_Hitbox_area_entered"]
