[gd_scene load_steps=4 format=2]

[ext_resource path="res://Graphics/Player.png" type="Texture" id=1]
[ext_resource path="res://Scripts/Characters/Player.gd" type="Script" id=2]

[sub_resource type="RectangleShape2D" id=1]
extents = Vector2( 6, 5 )

[node name="Player" type="Sprite"]
texture = ExtResource( 1 )
script = ExtResource( 2 )

[node name="Hitbox" type="Area2D" parent="."]

[node name="CollisionShape2D" type="CollisionShape2D" parent="."]
shape = SubResource( 1 )
[connection signal="area_entered" from="Hitbox" to="." method="_on_Hitbox_area_entered"]
