[gd_scene load_steps=4 format=2]

[ext_resource path="res://Graphics/Bullet.png" type="Texture" id=1]
[ext_resource path="res://Scripts/Player_Bullet.gd" type="Script" id=2]

[sub_resource type="RectangleShape2D" id=1]
extents = Vector2( 1, 1 )

[node name="Player_Bullet" type="Sprite"]
texture = ExtResource( 1 )
script = ExtResource( 2 )

[node name="Hitbox" type="Area2D" parent="." groups=[
"enemy_damager",
]]

[node name="CollisionShape2D" type="CollisionShape2D" parent="Hitbox"]
visible = false
shape = SubResource( 1 )
